{format:model}

entry0 {
	id = 0x12;
	type = 0x6e;
};
entry1 {
	id = 0x13;
	type = 0x6e;
};
entry2 {
	id = 0x18;
	type = 0x6e;
};
entry3 {
	id = 0x19;
	type = 0x6e;
};
entry4 {
	id = 0x14;
	type = 0x6e;
};
entry5 {
	id = 0x2a;
	type = 0x6e;
};
entry6 {
	id = 0x57;
	type = 0x6e;
};
entry7 {
	id = 0x2c;
	type = 0x6e;
};
entry8 {
	id = 0x96;
	type = 0x6e;
};
entry9 {
	id = 0x2d;
	type = 0x6e;
};
entry10 {
	id = 0x58;
	type = 0x6e;
};
entry11 {
	id = 0x5a;
	type = 0x6e;
};
entry12 {
	id = 0x9f;
	type = 0x6e;
};
entry13 {
	id = 0xa0;
	type = 0x6e;
};
entry14 {
	id = 0x59;
	type = 0x6e;
};
entry15 {
	id = 0x0;
	type = 0x63;
};
